{
  "defaultSeverity": "error",
  "extends": [
    "tslint:recommended",
    "tslint-eslint-rules"
  ],
  "jsRules": {},
  "rules": {
    "no-console": false,
    "indent": [true, "spaces", 2],
    "ter-indent": [true, 2],
    "max-classes-per-file": [false,1],
    "react-hooks/rules-of-hooks": "error", 
    "react-hooks/exhaustive-deps": "warn"
  },
  "rulesDirectory": []
}